28
0;255;1;1:11:12
1;245;1;0:2:10:11
2;235;1;1:3:9:10
3;225;1;2:4:8:9
4;215;1;3:5:7:8
5;205;1;4:6:7
6;195;1;5:7:16:17
7;185;0;4:5:6:17:16:15:8
8;175;0;3:4:7:15:14:9
9;165;0;2:3:8:14:13:10
10;155;0;1:2:9:13:12:11
11;145;0;0:1:10:12
12;135;1;11:10:13:23
13;125;0;10:9:14:22:23:12
14;115;0;9:8:15:20:21:22:13
15;105;0;8:7:16:19:20:14
16;95;0;7:6:17:18:19:15
17;90;1;6:27:18:16
18;85;0;16:17:27:26:19
19;80;0;15:16:18:26:20
20;75;0;14:15:19:26:21
21;65;0;14:20:26:25:22
22;55;0;13:14:21:25:23
23;45;1;12:13:22:25:24
24;35;1;23:25
25;25;1;24:23:22:21
26;15;1;25:21:20:19:18
27;0;1;26:18:17
